[gd_scene load_steps=8 format=2]

[ext_resource path="res://Scripts/Player.gd" type="Script" id=1]
[ext_resource path="res://scripts/Camera2D.gd" type="Script" id=2]
[ext_resource path="res://assets/dino/BlueDino.tres" type="SpriteFrames" id=3]

[sub_resource type="RectangleShape2D" id=1]
extents = Vector2( 16, 19 )

[sub_resource type="Animation" id=2]
resource_name = "Idle"
length = 0.2

[sub_resource type="Animation" id=3]
resource_name = "Jump"
length = 0.2

[sub_resource type="Animation" id=4]
length = 0.4
loop = true

[node name="Player" type="KinematicBody2D"]
script = ExtResource( 1 )

[node name="CollisionShape2D" type="CollisionShape2D" parent="."]
position = Vector2( 0, -0.529732 )
shape = SubResource( 1 )

[node name="Animator" type="AnimationPlayer" parent="."]
anims/Idle = SubResource( 2 )
anims/Jump = SubResource( 3 )
anims/Walk = SubResource( 4 )

[node name="Camera2D" type="Camera2D" parent="."]
offset = Vector2( 0, -50 )
current = true
zoom = Vector2( 0.5, 0.5 )
limit_left = 0
limit_right = 500
script = ExtResource( 2 )

[node name="Sprite" type="AnimatedSprite" parent="."]
scale = Vector2( 2, 2 )
frames = ExtResource( 3 )
animation = "jalan_kanan"
frame = 2
playing = true

[node name="Node2D" type="Node2D" parent="."]

[node name="Position2D" type="Position2D" parent="Node2D"]
position = Vector2( 30, 0 )
