[gd_scene load_steps=2 format=2]

[ext_resource path="res://assets/dino/GreenDino.tres" type="SpriteFrames" id=1]

[node name="Node2D" type="AnimatedSprite"]
scale = Vector2( 2, 2 )
frames = ExtResource( 1 )
animation = "jalan_kiri"
frame = 2
playing = true
